<?xml version="1.0" encoding="UTF-8"?>
<svg width="35px" height="35px" viewBox="0 0 35 35" version="1.1" xmlns="http://www.w3.org/2000/svg" xmlns:xlink="http://www.w3.org/1999/xlink">
    <title>bi:quote</title>
    <g id="Page-1" stroke="none" stroke-width="1" fill="none" fill-rule="evenodd">
        <g id="5D-BSNum-item" transform="translate(-1202.000000, -319.000000)">
            <g id="bi:quote" transform="translate(1202.000000, 319.000000)">
                <rect id="ViewBox" x="0" y="0" width="35" height="35"></rect>
                <path d="M26.3421436,26.7105263 C27.5629624,26.7105263 28.5526316,25.7025124 28.5526316,24.4590643 L28.5526316,18.9609942 C28.5526316,17.717546 27.5629624,16.7095322 26.3421436,16.7095322 L23.2739862,16.7095322 C23.2739862,15.919269 23.3204065,15.1267544 23.4110365,14.3364912 C23.5480867,13.4989474 23.7779775,12.7537135 24.0962877,12.1030409 C24.4168085,11.450117 24.8279593,10.9390351 25.3319505,10.5652924 C25.8337313,10.1465205 26.4725624,9.9371345 27.2506541,9.9371345 L27.2506541,6.44736842 C25.9707816,6.44736842 24.8522746,6.72654971 23.8907124,7.28491228 C22.9375201,7.83761446 22.1179947,8.60078367 21.4923329,9.51836257 C20.8643888,10.5299771 20.401555,11.638558 20.1218303,12.8009942 C19.839962,14.0837877 19.702028,15.3950345 19.7106795,16.7095322 L19.7106795,24.4590643 C19.7106795,25.7025124 20.7003487,26.7105263 21.9211675,26.7105263 L26.3421436,26.7105263 L26.3421436,26.7105263 Z M13.0792155,26.7105263 C14.3000343,26.7105263 15.2897035,25.7025124 15.2897035,24.4590643 L15.2897035,18.9609942 C15.2897035,17.717546 14.3000343,16.7095322 13.0792155,16.7095322 L10.0110581,16.7095322 C10.0110581,15.919269 10.0574784,15.1267544 10.1481084,14.3364912 C10.2851586,13.4989474 10.5150494,12.7537135 10.8333597,12.1030409 C11.1538804,11.450117 11.5650312,10.9390351 12.0690225,10.5652924 C12.5708032,10.1465205 13.2096343,9.9371345 13.9877261,9.9371345 L13.9877261,6.44736842 C12.7078535,6.44736842 11.5893466,6.72654971 10.6277843,7.28491228 C9.67459206,7.83761446 8.8550666,8.60078367 8.22940479,9.51836257 C7.60146076,10.5299771 7.13862693,11.638558 6.85890222,12.8009942 C6.57703389,14.0837877 6.43909993,15.3950345 6.44775145,16.7095322 L6.44775145,24.4590643 C6.44775145,25.7025124 7.43742064,26.7105263 8.65823946,26.7105263 L13.0792155,26.7105263 Z" id="Shape" fill="#8D0E57" fill-rule="nonzero"></path>
            </g>
        </g>
    </g>
</svg>