<?xml version="1.0" encoding="UTF-8"?>
<svg width="15px" height="15px" viewBox="0 0 15 15" version="1.1" xmlns="http://www.w3.org/2000/svg" xmlns:xlink="http://www.w3.org/1999/xlink">
    <title>fa-solid:search</title>
    <g id="Symbols" stroke="none" stroke-width="1" fill="none" fill-rule="evenodd">
        <g id="header" transform="translate(-1159.000000, -12.000000)">
            <g id="fa-solid:search" transform="translate(1159.000000, 12.000000)">
                <rect id="ViewBox" x="0" y="0" width="15" height="15"></rect>
                <path d="M14.7960041,12.9684601 L11.874892,10.0478469 C11.7430464,9.91602383 11.5643224,9.84278879 11.3768087,9.84278879 L10.8992347,9.84278879 C11.7078876,8.80871009 12.1883915,7.50805585 12.1883915,6.09315497 C12.1883915,2.72727273 9.46065293,0 6.09419576,0 C2.72773858,0 0,2.72727273 0,6.09315497 C0,9.4590372 2.72773858,12.1863099 6.09419576,12.1863099 C7.50933833,12.1863099 8.81021473,11.7058881 9.84447007,10.8973733 L9.84447007,11.3748657 C9.84447007,11.5623474 9.91771761,11.7410409 10.0495632,11.872864 L12.9706753,14.7934772 C13.2460861,15.0688409 13.6914311,15.0688409 13.963912,14.7934772 L14.7930742,13.9644566 C15.068485,13.6890929 15.068485,13.2438238 14.7960041,12.9684601 Z M6.09419576,9.84278879 C4.02275518,9.84278879 2.34392144,8.16717117 2.34392144,6.09315497 C2.34392144,4.02206816 4.01982528,2.34352114 6.09419576,2.34352114 C8.16563633,2.34352114 9.84447007,4.01913876 9.84447007,6.09315497 C9.84447007,8.16424177 8.16856623,9.84278879 6.09419576,9.84278879 Z" id="Shape" fill="#8D0E57" fill-rule="nonzero"></path>
            </g>
        </g>
    </g>
</svg>