<?xml version="1.0" encoding="UTF-8"?>
<svg width="28px" height="28px" viewBox="0 0 28 28" version="1.1" xmlns="http://www.w3.org/2000/svg" xmlns:xlink="http://www.w3.org/1999/xlink">
    <title>ic:baseline-local-printshop</title>
    <g id="Page-1" stroke="none" stroke-width="1" fill="none" fill-rule="evenodd">
        <g id="5D-BSNum-item" transform="translate(-1253.000000, -323.000000)">
            <g id="ic:baseline-local-printshop" transform="translate(1253.000000, 323.000000)">
                <rect id="ViewBox" x="0" y="0" width="28" height="28"></rect>
                <path d="M22.1666667,9.33333333 L5.83333333,9.33333333 C3.89666667,9.33333333 2.33333333,10.8966667 2.33333333,12.8333333 L2.33333333,19.8333333 L7,19.8333333 L7,24.5 L21,24.5 L21,19.8333333 L25.6666667,19.8333333 L25.6666667,12.8333333 C25.6666667,10.8966667 24.1033333,9.33333333 22.1666667,9.33333333 Z M18.6666667,22.1666667 L9.33333333,22.1666667 L9.33333333,16.3333333 L18.6666667,16.3333333 L18.6666667,22.1666667 Z M22.1666667,14 C21.525,14 21,13.475 21,12.8333333 C21,12.1916667 21.525,11.6666667 22.1666667,11.6666667 C22.8083333,11.6666667 23.3333333,12.1916667 23.3333333,12.8333333 C23.3333333,13.475 22.8083333,14 22.1666667,14 Z M21,3.5 L7,3.5 L7,8.16666667 L21,8.16666667 L21,3.5 Z" id="Shape" fill="#8D0E57" fill-rule="nonzero"></path>
            </g>
        </g>
    </g>
</svg>