<?xml version="1.0" encoding="UTF-8"?>
<svg width="47px" height="48px" viewBox="0 0 47 48" version="1.1" xmlns="http://www.w3.org/2000/svg" xmlns:xlink="http://www.w3.org/1999/xlink">
    <title>ant-design:twitter-circle-filled</title>
    <g id="Page-1" stroke="none" stroke-width="1" fill="none" fill-rule="evenodd">
        <g id="14E-BSNum-page_type" transform="translate(-1019.000000, -1487.000000)" fill="#8D0E57" fill-rule="nonzero">
            <g id="ant-design:twitter-circle-filled" transform="translate(1019.000000, 1487.750000)">
                <path d="M23.5,0.25 C10.5225446,0.25 0,10.7725446 0,23.75 C0,36.7274554 10.5225446,47.25 23.5,47.25 C36.4774554,47.25 47,36.7274554 47,23.75 C47,10.7725446 36.4774554,0.25 23.5,0.25 Z M34.7936384,17.9641741 C34.809375,18.2107143 34.809375,18.4677455 34.809375,18.7195312 C34.809375,26.4199777 28.9448661,35.2901786 18.2282366,35.2901786 C14.9235491,35.2901786 11.8601562,34.3302455 9.27935268,32.6779018 C9.75145089,32.7303571 10.202567,32.7513393 10.6851562,32.7513393 C13.4128348,32.7513393 15.9202009,31.828125 17.91875,30.2649554 C15.3589286,30.2125 13.2082589,28.5339286 12.4738839,26.2258929 C13.3708705,26.3570313 14.178683,26.3570313 15.1018973,26.1209821 C12.3841948,25.5688415 10.4330635,23.1765657 10.4386161,20.4033482 L10.4386161,20.3299107 C11.2097098,20.7652902 12.1171875,21.0328125 13.0666295,21.0695313 C11.4456483,19.989228 10.4714037,18.1706381 10.4700893,16.2226562 C10.4700893,15.1368304 10.7533482,14.1454241 11.2621652,13.2851563 C14.2209114,16.9274524 18.5876733,19.1413435 23.274442,19.3752232 C22.4508929,15.4148438 25.409375,12.2098214 28.9658482,12.2098214 C30.6444196,12.2098214 32.1551339,12.9127232 33.2199777,14.0457589 C34.5366071,13.7992188 35.7955357,13.3061384 36.9180804,12.6452009 C36.4827009,13.9933036 35.5699777,15.1315848 34.3582589,15.8502232 C35.5332589,15.7243304 36.6662946,15.3991071 37.7154018,14.9427455 C36.9233259,16.1072545 35.9319196,17.140625 34.7936384,17.9641741 L34.7936384,17.9641741 Z" id="Shape"></path>
            </g>
        </g>
    </g>
</svg>