<?xml version="1.0" encoding="UTF-8"?>
<svg width="21px" height="21px" viewBox="0 0 21 21" version="1.1" xmlns="http://www.w3.org/2000/svg" xmlns:xlink="http://www.w3.org/1999/xlink">
    <title>fa-solid:user-circle</title>
    <g id="Symbols" stroke="none" stroke-width="1" fill="none" fill-rule="evenodd">
        <g id="header" transform="translate(-1197.000000, -9.000000)">
            <g id="fa-solid:user-circle" transform="translate(1197.000000, 9.000000)">
                <rect id="ViewBox" x="0" y="0" width="20.34375" height="21"></rect>
                <path d="M10.171875,0.328125 C4.55273438,0.328125 0,4.88085938 0,10.5 C0,16.1191406 4.55273438,20.671875 10.171875,20.671875 C15.7910156,20.671875 20.34375,16.1191406 20.34375,10.5 C20.34375,4.88085938 15.7910156,0.328125 10.171875,0.328125 Z M10.171875,4.265625 C12.1652344,4.265625 13.78125,5.88164062 13.78125,7.875 C13.78125,9.86835938 12.1652344,11.484375 10.171875,11.484375 C8.17851563,11.484375 6.5625,9.86835938 6.5625,7.875 C6.5625,5.88164062 8.17851563,4.265625 10.171875,4.265625 Z M10.171875,18.375 C7.76425781,18.375 5.60683594,17.2839844 4.16308594,15.5777344 C4.93417969,14.1257813 6.44355469,13.125 8.203125,13.125 C8.3015625,13.125 8.4,13.1414062 8.49433594,13.1701172 C9.02753906,13.3423828 9.58535156,13.453125 10.171875,13.453125 C10.7583984,13.453125 11.3203125,13.3423828 11.8494141,13.1701172 C11.94375,13.1414063 12.0421875,13.125 12.140625,13.125 C13.9001953,13.125 15.4095703,14.1257812 16.1806641,15.5777344 C14.7369141,17.2839844 12.5794922,18.375 10.171875,18.375 Z" id="Shape" fill="#8D0E57" fill-rule="nonzero"></path>
            </g>
        </g>
    </g>
</svg>